<?xml version="1.0" encoding="iso-8859-1"?>
<!-- Generator: Adobe Illustrator 19.1.0, SVG Export Plug-In . SVG Version: 6.00 Build 0)  -->
<svg version="1.1" id="Calque_1" xmlns="http://www.w3.org/2000/svg" xmlns:xlink="http://www.w3.org/1999/xlink" x="0px" y="0px"
	 viewBox="0 0 20.01 20" style="enable-background:new 0 0 20.01 20;" xml:space="preserve">
<g>
	<path style="fill:#E76162;" d="M10.007,20C4.489,20,0,15.516,0,10.004C0,4.488,4.489,0,10.007,0C15.523,0,20.01,4.488,20.01,10.004
		C20.01,15.516,15.523,20,10.007,20z M10.007,0.953c-4.992,0-9.054,4.061-9.054,9.051c0,4.986,4.061,9.045,9.054,9.045
		c4.99,0,9.051-4.059,9.051-9.045C19.058,5.014,14.997,0.953,10.007,0.953z M10.011,17.191c-0.488,0-0.908-0.168-1.249-0.496
		c-0.341-0.34-0.511-0.746-0.511-1.213c0-0.461,0.175-0.877,0.507-1.207c0.671-0.654,1.788-0.676,2.482-0.004
		c0.345,0.328,0.52,0.736,0.52,1.211c0,0.457-0.18,0.873-0.519,1.203C10.903,17.016,10.478,17.191,10.011,17.191z M10.011,14.727
		c-0.24,0-0.426,0.072-0.584,0.229c-0.15,0.148-0.223,0.318-0.223,0.527c0,0.211,0.072,0.379,0.226,0.533
		c0.301,0.291,0.804,0.324,1.146-0.012c0.159-0.154,0.232-0.32,0.232-0.521c0-0.209-0.072-0.377-0.228-0.524
		C10.416,14.801,10.235,14.727,10.011,14.727z M9.993,13.424c-1.298,0-1.399-0.895-1.399-1.168c0-0.799-0.041-2.133-0.123-3.965
		c-0.086-1.854-0.13-3.203-0.13-4.01c0-0.457,0.179-0.84,0.516-1.107c0.606-0.48,1.654-0.49,2.28,0.014
		c0.338,0.272,0.516,0.648,0.516,1.094c0,0.809-0.045,2.158-0.133,4.012c-0.084,1.777-0.129,3.148-0.129,3.963
		c0,0.385-0.186,0.711-0.522,0.914C10.601,13.336,10.305,13.424,9.993,13.424z M9.993,3.762c-0.232,0-0.409,0.051-0.543,0.158
		C9.377,3.979,9.294,4.07,9.294,4.281c0,0.791,0.043,2.125,0.129,3.967c0.082,1.848,0.125,3.195,0.125,4.008
		c0,0.102,0,0.215,0.445,0.215c0.133,0,0.256-0.037,0.375-0.111c0.066-0.041,0.07-0.061,0.07-0.103c0-0.83,0.044-2.215,0.129-4.008
		c0.087-1.838,0.131-3.174,0.131-3.967c0-0.156-0.047-0.262-0.158-0.352C10.396,3.815,10.224,3.762,9.993,3.762z"/>
</g>
</svg>
