<?xml version="1.0" encoding="iso-8859-1"?>
<!-- Generator: Adobe Illustrator 19.2.0, SVG Export Plug-In . SVG Version: 6.00 Build 0)  -->
<svg version="1.1" id="Calque_1" xmlns="http://www.w3.org/2000/svg" xmlns:xlink="http://www.w3.org/1999/xlink" x="0px" y="0px"
	 viewBox="0 0 16 16" style="enable-background:new 0 0 16 16;" xml:space="preserve">
<g>
	<circle style="opacity:0.4;fill:#D6E0E9;" cx="8" cy="8" r="8"/>
	<g>
		<path style="fill:#B2C72C;" d="M12.148,3.558c0.12,0.451,0.032,0.944-0.262,1.481l-0.047,0.081L9.265,9.833
			c-0.547,1-1.03,1.789-1.448,2.367c-0.418,0.578-0.737,0.896-0.957,0.955c-0.231,0.06-0.547,0.029-0.948-0.098
			c-0.401-0.127-0.683-0.293-0.844-0.497c-0.136-0.17-0.325-0.557-0.566-1.163c-0.241-0.604-0.459-1.271-0.652-2
			C3.744,9.001,3.812,8.59,4.054,8.164c0.242-0.426,0.563-0.691,0.964-0.798C5.399,7.265,5.72,7.553,5.979,8.231
			C6.008,8.31,6.029,8.369,6.044,8.405C6.248,8.925,6.419,9.28,6.555,9.471c0.138,0.19,0.276,0.267,0.415,0.23
			c0.058-0.015,0.149-0.106,0.274-0.273C7.369,9.26,7.512,9.039,7.674,8.765l2.705-4.614c0.227-0.39,0.44-0.697,0.641-0.919
			c0.201-0.223,0.386-0.357,0.556-0.402c0.127-0.034,0.23-0.01,0.311,0.073c0.079,0.082,0.149,0.236,0.21,0.463L12.148,3.558z"/>
	</g>
</g>
</svg>
