<?xml version="1.0" encoding="iso-8859-1"?>
<!-- Generator: Adobe Illustrator 19.2.0, SVG Export Plug-In . SVG Version: 6.00 Build 0)  -->
<svg version="1.1" id="Calque_1" xmlns="http://www.w3.org/2000/svg" xmlns:xlink="http://www.w3.org/1999/xlink" x="0px" y="0px"
	 viewBox="0 0 134.704 40" style="enable-background:new 0 0 134.704 40;" xml:space="preserve">
<g>
	<path style="opacity:0.4;fill:#D6E0E9;" d="M19.885,40h114.819V0H19.885C8.837,0,0,8.953,0,20.001C0,31.048,8.837,40,19.885,40z"/>
</g>
</svg>
